%!PS-Adobe-3.0 EPSF-3.0
%%Creator: (MATLAB, The Mathworks, Inc. Version 9.5.0.944444 \(R2018b\). Operating System: Linux)
%%Title: imgs/kirchoffvmindlin.eps
%%CreationDate: 2019-03-15T00:26:49
%%Pages: (atend)
%%BoundingBox:   124    31  1275   683
%%LanguageLevel: 3
%%EndComments
%%BeginProlog
%%BeginResource: procset (Apache XML Graphics Std ProcSet) 1.2 0
%%Version: 1.2 0
%%Copyright: (Copyright 2001-2003,2010 The Apache Software Foundation. License terms: http://www.apache.org/licenses/LICENSE-2.0)
/bd{bind def}bind def
/ld{load def}bd
/GR/grestore ld
/GS/gsave ld
/RM/rmoveto ld
/C/curveto ld
/t/show ld
/L/lineto ld
/ML/setmiterlimit ld
/CT/concat ld
/f/fill ld
/N/newpath ld
/S/stroke ld
/CC/setcmykcolor ld
/A/ashow ld
/cp/closepath ld
/RC/setrgbcolor ld
/LJ/setlinejoin ld
/GC/setgray ld
/LW/setlinewidth ld
/M/moveto ld
/re {4 2 roll M
1 index 0 rlineto
0 exch rlineto
neg 0 rlineto
cp } bd
/_ctm matrix def
/_tm matrix def
/BT { _ctm currentmatrix pop matrix _tm copy pop 0 0 moveto } bd
/ET { _ctm setmatrix } bd
/iTm { _ctm setmatrix _tm concat } bd
/Tm { _tm astore pop iTm 0 0 moveto } bd
/ux 0.0 def
/uy 0.0 def
/F {
  /Tp exch def
  /Tf exch def
  Tf findfont Tp scalefont setfont
  /cf Tf def  /cs Tp def
} bd
/ULS {currentpoint /uy exch def /ux exch def} bd
/ULE {
  /Tcx currentpoint pop def
  gsave
  newpath
  cf findfont cs scalefont dup
  /FontMatrix get 0 get /Ts exch def /FontInfo get dup
  /UnderlinePosition get Ts mul /To exch def
  /UnderlineThickness get Ts mul /Tt exch def
  ux uy To add moveto  Tcx uy To add lineto
  Tt setlinewidth stroke
  grestore
} bd
/OLE {
  /Tcx currentpoint pop def
  gsave
  newpath
  cf findfont cs scalefont dup
  /FontMatrix get 0 get /Ts exch def /FontInfo get dup
  /UnderlinePosition get Ts mul /To exch def
  /UnderlineThickness get Ts mul /Tt exch def
  ux uy To add cs add moveto Tcx uy To add cs add lineto
  Tt setlinewidth stroke
  grestore
} bd
/SOE {
  /Tcx currentpoint pop def
  gsave
  newpath
  cf findfont cs scalefont dup
  /FontMatrix get 0 get /Ts exch def /FontInfo get dup
  /UnderlinePosition get Ts mul /To exch def
  /UnderlineThickness get Ts mul /Tt exch def
  ux uy To add cs 10 mul 26 idiv add moveto Tcx uy To add cs 10 mul 26 idiv add lineto
  Tt setlinewidth stroke
  grestore
} bd
/QT {
/Y22 exch store
/X22 exch store
/Y21 exch store
/X21 exch store
currentpoint
/Y21 load 2 mul add 3 div exch
/X21 load 2 mul add 3 div exch
/X21 load 2 mul /X22 load add 3 div
/Y21 load 2 mul /Y22 load add 3 div
/X22 load /Y22 load curveto
} bd
/SSPD {
dup length /d exch dict def
{
/v exch def
/k exch def
currentpagedevice k known {
/cpdv currentpagedevice k get def
v cpdv ne {
/upd false def
/nullv v type /nulltype eq def
/nullcpdv cpdv type /nulltype eq def
nullv nullcpdv or
{
/upd true def
} {
/sametype v type cpdv type eq def
sametype {
v type /arraytype eq {
/vlen v length def
/cpdvlen cpdv length def
vlen cpdvlen eq {
0 1 vlen 1 sub {
/i exch def
/obj v i get def
/cpdobj cpdv i get def
obj cpdobj ne {
/upd true def
exit
} if
} for
} {
/upd true def
} ifelse
} {
v type /dicttype eq {
v {
/dv exch def
/dk exch def
/cpddv cpdv dk get def
dv cpddv ne {
/upd true def
exit
} if
} forall
} {
/upd true def
} ifelse
} ifelse
} if
} ifelse
upd true eq {
d k v put
} if
} if
} if
} forall
d length 0 gt {
d setpagedevice
} if
} bd
/RE { % /NewFontName [NewEncodingArray] /FontName RE -
  findfont dup length dict begin
  {
    1 index /FID ne
    {def} {pop pop} ifelse
  } forall
  /Encoding exch def
  /FontName 1 index def
  currentdict definefont pop
  end
} bind def
%%EndResource
%%BeginResource: procset (Apache XML Graphics EPS ProcSet) 1.0 0
%%Version: 1.0 0
%%Copyright: (Copyright 2002-2003 The Apache Software Foundation. License terms: http://www.apache.org/licenses/LICENSE-2.0)
/BeginEPSF { %def
/b4_Inc_state save def         % Save state for cleanup
/dict_count countdictstack def % Count objects on dict stack
/op_count count 1 sub def      % Count objects on operand stack
userdict begin                 % Push userdict on dict stack
/showpage { } def              % Redefine showpage, { } = null proc
0 setgray 0 setlinecap         % Prepare graphics state
1 setlinewidth 0 setlinejoin
10 setmiterlimit [ ] 0 setdash newpath
/languagelevel where           % If level not equal to 1 then
{pop languagelevel             % set strokeadjust and
1 ne                           % overprint to their defaults.
{false setstrokeadjust false setoverprint
} if
} if
} bd
/EndEPSF { %def
count op_count sub {pop} repeat            % Clean up stacks
countdictstack dict_count sub {end} repeat
b4_Inc_state restore
} bd
%%EndResource
%FOPBeginFontDict
%%IncludeResource: font Courier-Oblique
%%IncludeResource: font Courier-BoldOblique
%%IncludeResource: font Courier-Bold
%%IncludeResource: font ZapfDingbats
%%IncludeResource: font Symbol
%%IncludeResource: font Helvetica
%%IncludeResource: font Helvetica-Oblique
%%IncludeResource: font Helvetica-Bold
%%IncludeResource: font Helvetica-BoldOblique
%%IncludeResource: font Times-Roman
%%IncludeResource: font Times-Italic
%%IncludeResource: font Times-Bold
%%IncludeResource: font Times-BoldItalic
%%IncludeResource: font Courier
%FOPEndFontDict
%%BeginResource: encoding WinAnsiEncoding
/WinAnsiEncoding [
/.notdef /.notdef /.notdef /.notdef /.notdef
/.notdef /.notdef /.notdef /.notdef /.notdef
/.notdef /.notdef /.notdef /.notdef /.notdef
/.notdef /.notdef /.notdef /.notdef /.notdef
/.notdef /.notdef /.notdef /.notdef /.notdef
/.notdef /.notdef /.notdef /.notdef /.notdef
/.notdef /.notdef /space /exclam /quotedbl
/numbersign /dollar /percent /ampersand /quotesingle
/parenleft /parenright /asterisk /plus /comma
/hyphen /period /slash /zero /one
/two /three /four /five /six
/seven /eight /nine /colon /semicolon
/less /equal /greater /question /at
/A /B /C /D /E
/F /G /H /I /J
/K /L /M /N /O
/P /Q /R /S /T
/U /V /W /X /Y
/Z /bracketleft /backslash /bracketright /asciicircum
/underscore /quoteleft /a /b /c
/d /e /f /g /h
/i /j /k /l /m
/n /o /p /q /r
/s /t /u /v /w
/x /y /z /braceleft /bar
/braceright /asciitilde /bullet /Euro /bullet
/quotesinglbase /florin /quotedblbase /ellipsis /dagger
/daggerdbl /circumflex /perthousand /Scaron /guilsinglleft
/OE /bullet /Zcaron /bullet /bullet
/quoteleft /quoteright /quotedblleft /quotedblright /bullet
/endash /emdash /asciitilde /trademark /scaron
/guilsinglright /oe /bullet /zcaron /Ydieresis
/space /exclamdown /cent /sterling /currency
/yen /brokenbar /section /dieresis /copyright
/ordfeminine /guillemotleft /logicalnot /sfthyphen /registered
/macron /degree /plusminus /twosuperior /threesuperior
/acute /mu /paragraph /middot /cedilla
/onesuperior /ordmasculine /guillemotright /onequarter /onehalf
/threequarters /questiondown /Agrave /Aacute /Acircumflex
/Atilde /Adieresis /Aring /AE /Ccedilla
/Egrave /Eacute /Ecircumflex /Edieresis /Igrave
/Iacute /Icircumflex /Idieresis /Eth /Ntilde
/Ograve /Oacute /Ocircumflex /Otilde /Odieresis
/multiply /Oslash /Ugrave /Uacute /Ucircumflex
/Udieresis /Yacute /Thorn /germandbls /agrave
/aacute /acircumflex /atilde /adieresis /aring
/ae /ccedilla /egrave /eacute /ecircumflex
/edieresis /igrave /iacute /icircumflex /idieresis
/eth /ntilde /ograve /oacute /ocircumflex
/otilde /odieresis /divide /oslash /ugrave
/uacute /ucircumflex /udieresis /yacute /thorn
/ydieresis
] def
%%EndResource
%FOPBeginFontReencode
/Courier-Oblique findfont
dup length dict begin
  {1 index /FID ne {def} {pop pop} ifelse} forall
  /Encoding WinAnsiEncoding def
  currentdict
end
/Courier-Oblique exch definefont pop
/Courier-BoldOblique findfont
dup length dict begin
  {1 index /FID ne {def} {pop pop} ifelse} forall
  /Encoding WinAnsiEncoding def
  currentdict
end
/Courier-BoldOblique exch definefont pop
/Courier-Bold findfont
dup length dict begin
  {1 index /FID ne {def} {pop pop} ifelse} forall
  /Encoding WinAnsiEncoding def
  currentdict
end
/Courier-Bold exch definefont pop
/Helvetica findfont
dup length dict begin
  {1 index /FID ne {def} {pop pop} ifelse} forall
  /Encoding WinAnsiEncoding def
  currentdict
end
/Helvetica exch definefont pop
/Helvetica-Oblique findfont
dup length dict begin
  {1 index /FID ne {def} {pop pop} ifelse} forall
  /Encoding WinAnsiEncoding def
  currentdict
end
/Helvetica-Oblique exch definefont pop
/Helvetica-Bold findfont
dup length dict begin
  {1 index /FID ne {def} {pop pop} ifelse} forall
  /Encoding WinAnsiEncoding def
  currentdict
end
/Helvetica-Bold exch definefont pop
/Helvetica-BoldOblique findfont
dup length dict begin
  {1 index /FID ne {def} {pop pop} ifelse} forall
  /Encoding WinAnsiEncoding def
  currentdict
end
/Helvetica-BoldOblique exch definefont pop
/Times-Roman findfont
dup length dict begin
  {1 index /FID ne {def} {pop pop} ifelse} forall
  /Encoding WinAnsiEncoding def
  currentdict
end
/Times-Roman exch definefont pop
/Times-Italic findfont
dup length dict begin
  {1 index /FID ne {def} {pop pop} ifelse} forall
  /Encoding WinAnsiEncoding def
  currentdict
end
/Times-Italic exch definefont pop
/Times-Bold findfont
dup length dict begin
  {1 index /FID ne {def} {pop pop} ifelse} forall
  /Encoding WinAnsiEncoding def
  currentdict
end
/Times-Bold exch definefont pop
/Times-BoldItalic findfont
dup length dict begin
  {1 index /FID ne {def} {pop pop} ifelse} forall
  /Encoding WinAnsiEncoding def
  currentdict
end
/Times-BoldItalic exch definefont pop
/Courier findfont
dup length dict begin
  {1 index /FID ne {def} {pop pop} ifelse} forall
  /Encoding WinAnsiEncoding def
  currentdict
end
/Courier exch definefont pop
%FOPEndFontReencode
%%EndProlog
%%Page: 1 1
%%PageBoundingBox: 0 0 1397 715
%%BeginPageSetup
[1 0 0 -1 0 715] CT
%%EndPageSetup
GS
[0.75 0 0 0.75 0 0.25] CT
N
0 0 M
1862 0 L
1862 953 L
0 953 L
0 0 L
cp
clip
1 GC
N
0 0 1862 953 re
f
GR
GS
[0.75 0 0 0.75 0 0.25] CT
1 GC
N
0 0 1862 953 re
f
GR
GS
[0.75 0 0 0.75 0 0.25] CT
1 GC
N
242 848 M
1685 848 L
1685 71 L
242 71 L
cp
f
GR
GS
[0.75 0 0 0.75 0 0.25] CT
0.149 GC
2 setlinecap
1 LJ
0.667 LW
N
242 848 M
1685 848 L
S
GR
GS
[0.75 0 0 0.75 0 0.25] CT
0.149 GC
2 setlinecap
1 LJ
0.667 LW
N
242 848 M
242 833.57 L
S
GR
GS
[0.75 0 0 0.75 0 0.25] CT
0.149 GC
2 setlinecap
1 LJ
0.667 LW
N
386.3 848 M
386.3 833.57 L
S
GR
GS
[0.75 0 0 0.75 0 0.25] CT
0.149 GC
2 setlinecap
1 LJ
0.667 LW
N
530.6 848 M
530.6 833.57 L
S
GR
GS
[0.75 0 0 0.75 0 0.25] CT
0.149 GC
2 setlinecap
1 LJ
0.667 LW
N
674.9 848 M
674.9 833.57 L
S
GR
GS
[0.75 0 0 0.75 0 0.25] CT
0.149 GC
2 setlinecap
1 LJ
0.667 LW
N
819.2 848 M
819.2 833.57 L
S
GR
GS
[0.75 0 0 0.75 0 0.25] CT
0.149 GC
2 setlinecap
1 LJ
0.667 LW
N
963.5 848 M
963.5 833.57 L
S
GR
GS
[0.75 0 0 0.75 0 0.25] CT
0.149 GC
2 setlinecap
1 LJ
0.667 LW
N
1107.8 848 M
1107.8 833.57 L
S
GR
GS
[0.75 0 0 0.75 0 0.25] CT
0.149 GC
2 setlinecap
1 LJ
0.667 LW
N
1252.1 848 M
1252.1 833.57 L
S
GR
GS
[0.75 0 0 0.75 0 0.25] CT
0.149 GC
2 setlinecap
1 LJ
0.667 LW
N
1396.4 848 M
1396.4 833.57 L
S
GR
GS
[0.75 0 0 0.75 0 0.25] CT
0.149 GC
2 setlinecap
1 LJ
0.667 LW
N
1540.7 848 M
1540.7 833.57 L
S
GR
GS
[0.75 0 0 0.75 0 0.25] CT
0.149 GC
2 setlinecap
1 LJ
0.667 LW
N
1685 848 M
1685 833.57 L
S
GR
GS
[0.75 0 0 0.75 181.5 641.45001] CT
0.149 GC
/Helvetica 21.333 F
GS
[1 0 0 1 0 0] CT
-6 20 moveto 
1 -1 scale
(0) t 
GR
GR
GS
[0.75 0 0 0.75 289.72499 641.45001] CT
0.149 GC
/Helvetica 21.333 F
GS
[1 0 0 1 0 0] CT
-21 20 moveto 
1 -1 scale
(0.05) t 
GR
GR
GS
[0.75 0 0 0.75 397.94998 641.45001] CT
0.149 GC
/Helvetica 21.333 F
GS
[1 0 0 1 0 0] CT
-15 20 moveto 
1 -1 scale
(0.1) t 
GR
GR
GS
[0.75 0 0 0.75 506.17502 641.45001] CT
0.149 GC
/Helvetica 21.333 F
GS
[1 0 0 1 0 0] CT
-21 20 moveto 
1 -1 scale
(0.15) t 
GR
GR
GS
[0.75 0 0 0.75 614.40001 641.45001] CT
0.149 GC
/Helvetica 21.333 F
GS
[1 0 0 1 0 0] CT
-15 20 moveto 
1 -1 scale
(0.2) t 
GR
GR
GS
[0.75 0 0 0.75 722.625 641.45001] CT
0.149 GC
/Helvetica 21.333 F
GS
[1 0 0 1 0 0] CT
-21 20 moveto 
1 -1 scale
(0.25) t 
GR
GR
GS
[0.75 0 0 0.75 830.85004 641.45001] CT
0.149 GC
/Helvetica 21.333 F
GS
[1 0 0 1 0 0] CT
-15 20 moveto 
1 -1 scale
(0.3) t 
GR
GR
GS
[0.75 0 0 0.75 939.07498 641.45001] CT
0.149 GC
/Helvetica 21.333 F
GS
[1 0 0 1 0 0] CT
-21 20 moveto 
1 -1 scale
(0.35) t 
GR
GR
GS
[0.75 0 0 0.75 1047.30002 641.45001] CT
0.149 GC
/Helvetica 21.333 F
GS
[1 0 0 1 0 0] CT
-15 20 moveto 
1 -1 scale
(0.4) t 
GR
GR
GS
[0.75 0 0 0.75 1155.52496 641.45001] CT
0.149 GC
/Helvetica 21.333 F
GS
[1 0 0 1 0 0] CT
-21 20 moveto 
1 -1 scale
(0.45) t 
GR
GR
GS
[0.75 0 0 0.75 1263.75 641.45001] CT
0.149 GC
/Helvetica 21.333 F
GS
[1 0 0 1 0 0] CT
-15 20 moveto 
1 -1 scale
(0.5) t 
GR
GR
GS
[0.75 0 0 0.75 722.6255 661.95] CT
0.149 GC
/Helvetica 26.667 F
GS
[1 0 0 1 0 0] CT
-113 25 moveto 
1 -1 scale
(Plate thickness [m]) t 
GR
GR
GS
[0.75 0 0 0.75 0 0.25] CT
0.149 GC
2 setlinecap
1 LJ
0.667 LW
N
242 848 M
242 71 L
S
GR
GS
[0.75 0 0 0.75 0 0.25] CT
0.149 GC
2 setlinecap
1 LJ
0.667 LW
N
242 848 M
256.43 848 L
S
GR
GS
[0.75 0 0 0.75 0 0.25] CT
0.149 GC
2 setlinecap
1 LJ
0.667 LW
N
242 718.5 M
256.43 718.5 L
S
GR
GS
[0.75 0 0 0.75 0 0.25] CT
0.149 GC
2 setlinecap
1 LJ
0.667 LW
N
242 589 M
256.43 589 L
S
GR
GS
[0.75 0 0 0.75 0 0.25] CT
0.149 GC
2 setlinecap
1 LJ
0.667 LW
N
242 459.5 M
256.43 459.5 L
S
GR
GS
[0.75 0 0 0.75 0 0.25] CT
0.149 GC
2 setlinecap
1 LJ
0.667 LW
N
242 330 M
256.43 330 L
S
GR
GS
[0.75 0 0 0.75 0 0.25] CT
0.149 GC
2 setlinecap
1 LJ
0.667 LW
N
242 200.5 M
256.43 200.5 L
S
GR
GS
[0.75 0 0 0.75 0 0.25] CT
0.149 GC
2 setlinecap
1 LJ
0.667 LW
N
242 71 M
256.43 71 L
S
GR
GS
[0.75 0 0 0.75 176.3 636.25] CT
0.149 GC
/Helvetica 21.333 F
GS
[1 0 0 1 0 0] CT
-36 7 moveto 
1 -1 scale
(-1.2) t 
GR
GR
GS
[0.75 0 0 0.75 176.3 539.125] CT
0.149 GC
/Helvetica 21.333 F
GS
[1 0 0 1 0 0] CT
-18 7 moveto 
1 -1 scale
(-1) t 
GR
GR
GS
[0.75 0 0 0.75 176.3 442] CT
0.149 GC
/Helvetica 21.333 F
GS
[1 0 0 1 0 0] CT
-36 7 moveto 
1 -1 scale
(-0.8) t 
GR
GR
GS
[0.75 0 0 0.75 176.3 344.875] CT
0.149 GC
/Helvetica 21.333 F
GS
[1 0 0 1 0 0] CT
-36 7 moveto 
1 -1 scale
(-0.6) t 
GR
GR
GS
[0.75 0 0 0.75 176.3 247.74998] CT
0.149 GC
/Helvetica 21.333 F
GS
[1 0 0 1 0 0] CT
-36 7 moveto 
1 -1 scale
(-0.4) t 
GR
GR
GS
[0.75 0 0 0.75 176.3 150.62501] CT
0.149 GC
/Helvetica 21.333 F
GS
[1 0 0 1 0 0] CT
-36 7 moveto 
1 -1 scale
(-0.2) t 
GR
GR
GS
[0.75 0 0 0.75 176.3 53.5] CT
0.149 GC
/Helvetica 21.333 F
GS
[1 0 0 1 0 0] CT
-12 7 moveto 
1 -1 scale
(0) t 
GR
GR
GS
[0 -0.75 0.75 0 146.3 344.87473] CT
0.149 GC
/Helvetica 26.667 F
GS
[1 0 0 1 0 0] CT
-157.5 -7 moveto 
1 -1 scale
(Out-of-plane deflection [m]) t 
GR
GR
GS
[0.75 0 0 0.75 181.5 49] CT
0.149 GC
N
3.094 -0.609 M
3.094 -0.766 3.188 -0.906 QT
7.563 -5.25 L
3.188 -9.625 L
3.094 -9.719 3.094 -9.891 QT
3.094 -10.047 3.211 -10.18 QT
3.328 -10.313 3.5 -10.313 QT
3.656 -10.313 3.828 -10.188 QT
8.172 -5.828 L
12.5 -10.188 L
12.672 -10.313 12.813 -10.313 QT
12.984 -10.313 13.109 -10.188 QT
13.234 -10.063 13.234 -9.891 QT
13.234 -9.719 13.125 -9.625 QT
8.75 -5.25 L
13.125 -0.906 L
13.234 -0.766 13.234 -0.609 QT
13.234 -0.438 13.109 -0.313 QT
12.984 -0.188 12.813 -0.188 QT
12.656 -0.188 12.5 -0.344 QT
8.172 -4.672 L
3.828 -0.344 L
3.672 -0.188 3.5 -0.188 QT
3.328 -0.188 3.211 -0.32 QT
3.094 -0.453 3.094 -0.609 QT
cp
f
GR
GS
[0.75 0 0 0.75 194.25 49] CT
0.149 GC
/Helvetica 21.333 F
GS
[1 0 0 1 0 0] CT
0 0 moveto 
1 -1 scale
(10) t 
GR
GR
GS
[0.75 0 0 0.75 212.25 41.5] CT
0.149 GC
/Helvetica 17.067 F
GS
[1 0 0 1 0 0] CT
0 0 moveto 
1 -1 scale
(-9) t 
GR
GR
GS
[0.75 0 0 0.75 0 0.25] CT
0 0.447 0.741 RC
1 LJ
0.667 LW
N
244.886 482.636 M
274.276 482.636 L
303.666 482.636 L
333.056 482.636 L
362.446 482.636 L
391.836 482.636 L
421.227 482.636 L
450.617 482.636 L
480.007 482.636 L
509.397 482.636 L
538.787 482.636 L
568.177 482.636 L
597.567 482.636 L
626.957 482.636 L
656.347 482.636 L
685.737 482.636 L
715.127 482.636 L
744.517 482.636 L
773.907 482.636 L
803.298 482.636 L
832.688 482.636 L
862.078 482.636 L
891.468 482.636 L
920.858 482.636 L
950.248 482.636 L
979.638 482.636 L
1009.028 482.636 L
1038.418 482.636 L
1067.808 482.636 L
1097.198 482.636 L
1126.589 482.636 L
1155.979 482.636 L
1185.369 482.636 L
1214.759 482.636 L
1244.149 482.636 L
1273.539 482.636 L
1302.929 482.636 L
1332.319 482.636 L
1361.709 482.636 L
1391.099 482.636 L
1420.489 482.636 L
1449.879 482.636 L
1479.269 482.636 L
1508.66 482.636 L
1538.05 482.636 L
1567.44 482.636 L
1596.83 482.636 L
1626.22 482.636 L
1655.61 482.636 L
1685 482.636 L
S
GR
GS
[0.75 0 0 0.75 0 0.25] CT
0.851 0.325 0.098 RC
1 LJ
0.667 LW
N
244.886 71.192 M
274.276 93.755 L
303.666 143.791 L
333.056 202.886 L
362.446 257.835 L
391.836 303.612 L
421.227 340.068 L
450.617 368.787 L
480.007 391.569 L
509.397 409.94 L
538.787 425.066 L
568.177 437.81 L
597.567 448.8 L
626.957 458.495 L
656.347 467.233 L
685.737 475.265 L
715.127 482.78 L
744.517 489.92 L
773.907 496.796 L
803.298 503.492 L
832.688 510.077 L
862.078 516.602 L
891.468 523.111 L
920.858 529.638 L
950.248 536.21 L
979.638 542.851 L
1009.028 549.58 L
1038.418 556.413 L
1067.808 563.362 L
1097.198 570.438 L
1126.589 577.652 L
1155.979 585.01 L
1185.369 592.521 L
1214.759 600.189 L
1244.149 608.021 L
1273.539 616.019 L
1302.929 624.189 L
1332.319 632.533 L
1361.709 641.055 L
1391.099 649.756 L
1420.489 658.64 L
1449.879 667.708 L
1479.269 676.962 L
1508.66 686.404 L
1538.05 696.035 L
1567.44 705.857 L
1596.83 715.87 L
1626.22 726.076 L
1655.61 736.475 L
1685 747.068 L
S
GR
GS
[0.75 0 0 0.75 0 0.25] CT
0.929 0.694 0.125 RC
1 LJ
0.667 LW
N
244.886 479.105 M
274.276 479.466 L
303.666 480.26 L
333.056 481.351 L
362.446 482.676 L
391.836 484.21 L
421.227 485.947 L
450.617 487.885 L
480.007 490.023 L
509.397 492.362 L
538.787 494.901 L
568.177 497.641 L
597.567 500.582 L
626.957 503.723 L
656.347 507.065 L
685.737 510.608 L
715.127 514.352 L
744.517 518.297 L
773.907 522.444 L
803.298 526.792 L
832.688 531.342 L
862.078 536.093 L
891.468 541.047 L
920.858 546.203 L
950.248 551.561 L
979.638 557.122 L
1009.028 562.885 L
1038.418 568.85 L
1067.808 575.019 L
1097.198 581.39 L
1126.589 587.965 L
1155.979 594.742 L
1185.369 601.723 L
1214.759 608.907 L
1244.149 616.294 L
1273.539 623.885 L
1302.929 631.679 L
1332.319 639.677 L
1361.709 647.878 L
1391.099 656.283 L
1420.489 664.892 L
1449.879 673.705 L
1479.269 682.721 L
1508.66 691.942 L
1538.05 701.366 L
1567.44 710.994 L
1596.83 720.826 L
1626.22 730.862 L
1655.61 741.102 L
1685 751.547 L
S
GR
GS
[0.75 0 0 0.75 0 0.25] CT
1 GC
N
1674 183 M
1674 82 L
1463 82 L
1463 183 L
cp
f
GR
GS
[0.75 0 0 0.75 1132.5 75.25] CT
/Helvetica 26.667 F
GS
[1 0 0 1 0 0] CT
0 9 moveto 
1 -1 scale
(Kirchoff) t 
GR
GR
GS
[0.75 0 0 0.75 0 0.25] CT
0 0.447 0.741 RC
1 LJ
0.667 LW
N
1467 100 M
1507 100 L
S
GR
GS
[0.75 0 0 0.75 1132.5 99.625] CT
/Helvetica 26.667 F
GS
[1 0 0 1 0 0] CT
0 9 moveto 
1 -1 scale
(Mindlin: irs=2) t 
GR
GR
GS
[0.75 0 0 0.75 0 0.25] CT
0.851 0.325 0.098 RC
1 LJ
0.667 LW
N
1467 132.5 M
1507 132.5 L
S
GR
GS
[0.75 0 0 0.75 1132.5 124] CT
/Helvetica 26.667 F
GS
[1 0 0 1 0 0] CT
0 9 moveto 
1 -1 scale
(Mindlin: irs=1) t 
GR
GR
GS
[0.75 0 0 0.75 0 0.25] CT
0.929 0.694 0.125 RC
1 LJ
0.667 LW
N
1467 165 M
1507 165 L
S
GR
GS
[0.75 0 0 0.75 0 0.25] CT
0.149 GC
10.0 ML
0.667 LW
N
1463 183 M
1463 82 L
1674 82 L
1674 183 L
cp
S
GR
%%Trailer
%%Pages: 1
%%EOF
